{
  "ABIRoot": {
    "kind": "Root",
    "name": "TopLevel",
    "printedName": "TopLevel",
    "children": [
      {
        "kind": "Import",
        "name": "Foundation",
        "printedName": "Foundation",
        "declKind": "Import",
        "moduleName": "OfflineAadhaar",
        "declAttributes": [
          "RawDocComment"
        ]
      },
      {
        "kind": "Import",
        "name": "UIKit",
        "printedName": "UIKit",
        "declKind": "Import",
        "moduleName": "OfflineAadhaar"
      },
      {
        "kind": "Import",
        "name": "WebKit",
        "printedName": "WebKit",
        "declKind": "Import",
        "moduleName": "OfflineAadhaar"
      },
      {
        "kind": "TypeDecl",
        "name": "KAadhaarVerificationDelegate",
        "printedName": "KAadhaarVerificationDelegate",
        "children": [
          {
            "kind": "Function",
            "name": "getAadhaarData",
            "printedName": "getAadhaarData(aadhaarData:)",
            "children": [
              {
                "kind": "TypeNominal",
                "name": "Void",
                "printedName": "()"
              },
              {
                "kind": "TypeNominal",
                "name": "Dictionary",
                "printedName": "[Swift.String : Any]",
                "children": [
                  {
                    "kind": "TypeNominal",
                    "name": "String",
                    "printedName": "Swift.String",
                    "usr": "s:SS"
                  },
                  {
                    "kind": "TypeNominal",
                    "name": "ProtocolComposition",
                    "printedName": "Any"
                  }
                ],
                "usr": "s:SD"
              }
            ],
            "declKind": "Func",
            "usr": "s:14OfflineAadhaar28KAadhaarVerificationDelegateP03getB4Data07aadhaarG0ySDySSypG_tF",
            "mangledName": "$s14OfflineAadhaar28KAadhaarVerificationDelegateP03getB4Data07aadhaarG0ySDySSypG_tF",
            "moduleName": "OfflineAadhaar",
            "genericSig": "<τ_0_0 where τ_0_0 : OfflineAadhaar.KAadhaarVerificationDelegate>",
            "sugared_genericSig": "<Self where Self : OfflineAadhaar.KAadhaarVerificationDelegate>",
            "protocolReq": true,
            "reqNewWitnessTableEntry": true,
            "funcSelfKind": "NonMutating"
          }
        ],
        "declKind": "Protocol",
        "usr": "s:14OfflineAadhaar28KAadhaarVerificationDelegateP",
        "mangledName": "$s14OfflineAadhaar28KAadhaarVerificationDelegateP",
        "moduleName": "OfflineAadhaar",
        "declAttributes": [
          "AccessControl"
        ]
      },
      {
        "kind": "TypeDecl",
        "name": "OfflineAadhaarViewController",
        "printedName": "OfflineAadhaarViewController",
        "children": [
          {
            "kind": "Var",
            "name": "delegate",
            "printedName": "delegate",
            "children": [
              {
                "kind": "TypeNominal",
                "name": "Optional",
                "printedName": "OfflineAadhaar.KAadhaarVerificationDelegate?",
                "children": [
                  {
                    "kind": "TypeNominal",
                    "name": "KAadhaarVerificationDelegate",
                    "printedName": "OfflineAadhaar.KAadhaarVerificationDelegate",
                    "usr": "s:14OfflineAadhaar28KAadhaarVerificationDelegateP"
                  }
                ],
                "usr": "s:Sq"
              }
            ],
            "declKind": "Var",
            "usr": "s:14OfflineAadhaar0aB14ViewControllerC8delegateAA28KAadhaarVerificationDelegate_pSgvp",
            "mangledName": "$s14OfflineAadhaar0aB14ViewControllerC8delegateAA28KAadhaarVerificationDelegate_pSgvp",
            "moduleName": "OfflineAadhaar",
            "declAttributes": [
              "Custom",
              "HasInitialValue",
              "HasStorage",
              "AccessControl"
            ],
            "hasStorage": true,
            "accessors": [
              {
                "kind": "Accessor",
                "name": "Get",
                "printedName": "Get()",
                "children": [
                  {
                    "kind": "TypeNominal",
                    "name": "Optional",
                    "printedName": "OfflineAadhaar.KAadhaarVerificationDelegate?",
                    "children": [
                      {
                        "kind": "TypeNominal",
                        "name": "KAadhaarVerificationDelegate",
                        "printedName": "OfflineAadhaar.KAadhaarVerificationDelegate",
                        "usr": "s:14OfflineAadhaar28KAadhaarVerificationDelegateP"
                      }
                    ],
                    "usr": "s:Sq"
                  }
                ],
                "declKind": "Accessor",
                "usr": "s:14OfflineAadhaar0aB14ViewControllerC8delegateAA28KAadhaarVerificationDelegate_pSgvg",
                "mangledName": "$s14OfflineAadhaar0aB14ViewControllerC8delegateAA28KAadhaarVerificationDelegate_pSgvg",
                "moduleName": "OfflineAadhaar",
                "implicit": true,
                "accessorKind": "get"
              },
              {
                "kind": "Accessor",
                "name": "Set",
                "printedName": "Set()",
                "children": [
                  {
                    "kind": "TypeNominal",
                    "name": "Void",
                    "printedName": "()"
                  },
                  {
                    "kind": "TypeNominal",
                    "name": "Optional",
                    "printedName": "OfflineAadhaar.KAadhaarVerificationDelegate?",
                    "children": [
                      {
                        "kind": "TypeNominal",
                        "name": "KAadhaarVerificationDelegate",
                        "printedName": "OfflineAadhaar.KAadhaarVerificationDelegate",
                        "usr": "s:14OfflineAadhaar28KAadhaarVerificationDelegateP"
                      }
                    ],
                    "usr": "s:Sq"
                  }
                ],
                "declKind": "Accessor",
                "usr": "s:14OfflineAadhaar0aB14ViewControllerC8delegateAA28KAadhaarVerificationDelegate_pSgvs",
                "mangledName": "$s14OfflineAadhaar0aB14ViewControllerC8delegateAA28KAadhaarVerificationDelegate_pSgvs",
                "moduleName": "OfflineAadhaar",
                "implicit": true,
                "accessorKind": "set"
              },
              {
                "kind": "Accessor",
                "name": "Modify",
                "printedName": "Modify()",
                "children": [
                  {
                    "kind": "TypeNominal",
                    "name": "Void",
                    "printedName": "()"
                  }
                ],
                "declKind": "Accessor",
                "usr": "s:14OfflineAadhaar0aB14ViewControllerC8delegateAA28KAadhaarVerificationDelegate_pSgvM",
                "mangledName": "$s14OfflineAadhaar0aB14ViewControllerC8delegateAA28KAadhaarVerificationDelegate_pSgvM",
                "moduleName": "OfflineAadhaar",
                "implicit": true,
                "accessorKind": "_modify"
              }
            ]
          },
          {
            "kind": "Var",
            "name": "karzaToken",
            "printedName": "karzaToken",
            "children": [
              {
                "kind": "TypeNominal",
                "name": "Optional",
                "printedName": "Swift.String?",
                "children": [
                  {
                    "kind": "TypeNominal",
                    "name": "String",
                    "printedName": "Swift.String",
                    "usr": "s:SS"
                  }
                ],
                "usr": "s:Sq"
              }
            ],
            "declKind": "Var",
            "usr": "s:14OfflineAadhaar0aB14ViewControllerC10karzaTokenSSSgvp",
            "mangledName": "$s14OfflineAadhaar0aB14ViewControllerC10karzaTokenSSSgvp",
            "moduleName": "OfflineAadhaar",
            "declAttributes": [
              "Custom",
              "HasInitialValue",
              "HasStorage",
              "AccessControl"
            ],
            "hasStorage": true,
            "accessors": [
              {
                "kind": "Accessor",
                "name": "Get",
                "printedName": "Get()",
                "children": [
                  {
                    "kind": "TypeNominal",
                    "name": "Optional",
                    "printedName": "Swift.String?",
                    "children": [
                      {
                        "kind": "TypeNominal",
                        "name": "String",
                        "printedName": "Swift.String",
                        "usr": "s:SS"
                      }
                    ],
                    "usr": "s:Sq"
                  }
                ],
                "declKind": "Accessor",
                "usr": "s:14OfflineAadhaar0aB14ViewControllerC10karzaTokenSSSgvg",
                "mangledName": "$s14OfflineAadhaar0aB14ViewControllerC10karzaTokenSSSgvg",
                "moduleName": "OfflineAadhaar",
                "implicit": true,
                "accessorKind": "get"
              },
              {
                "kind": "Accessor",
                "name": "Set",
                "printedName": "Set()",
                "children": [
                  {
                    "kind": "TypeNominal",
                    "name": "Void",
                    "printedName": "()"
                  },
                  {
                    "kind": "TypeNominal",
                    "name": "Optional",
                    "printedName": "Swift.String?",
                    "children": [
                      {
                        "kind": "TypeNominal",
                        "name": "String",
                        "printedName": "Swift.String",
                        "usr": "s:SS"
                      }
                    ],
                    "usr": "s:Sq"
                  }
                ],
                "declKind": "Accessor",
                "usr": "s:14OfflineAadhaar0aB14ViewControllerC10karzaTokenSSSgvs",
                "mangledName": "$s14OfflineAadhaar0aB14ViewControllerC10karzaTokenSSSgvs",
                "moduleName": "OfflineAadhaar",
                "implicit": true,
                "accessorKind": "set"
              },
              {
                "kind": "Accessor",
                "name": "Modify",
                "printedName": "Modify()",
                "children": [
                  {
                    "kind": "TypeNominal",
                    "name": "Void",
                    "printedName": "()"
                  }
                ],
                "declKind": "Accessor",
                "usr": "s:14OfflineAadhaar0aB14ViewControllerC10karzaTokenSSSgvM",
                "mangledName": "$s14OfflineAadhaar0aB14ViewControllerC10karzaTokenSSSgvM",
                "moduleName": "OfflineAadhaar",
                "implicit": true,
                "accessorKind": "_modify"
              }
            ]
          },
          {
            "kind": "Var",
            "name": "environmentString",
            "printedName": "environmentString",
            "children": [
              {
                "kind": "TypeNominal",
                "name": "Optional",
                "printedName": "Swift.String?",
                "children": [
                  {
                    "kind": "TypeNominal",
                    "name": "String",
                    "printedName": "Swift.String",
                    "usr": "s:SS"
                  }
                ],
                "usr": "s:Sq"
              }
            ],
            "declKind": "Var",
            "usr": "s:14OfflineAadhaar0aB14ViewControllerC17environmentStringSSSgvp",
            "mangledName": "$s14OfflineAadhaar0aB14ViewControllerC17environmentStringSSSgvp",
            "moduleName": "OfflineAadhaar",
            "declAttributes": [
              "Custom",
              "HasInitialValue",
              "HasStorage",
              "AccessControl"
            ],
            "hasStorage": true,
            "accessors": [
              {
                "kind": "Accessor",
                "name": "Get",
                "printedName": "Get()",
                "children": [
                  {
                    "kind": "TypeNominal",
                    "name": "Optional",
                    "printedName": "Swift.String?",
                    "children": [
                      {
                        "kind": "TypeNominal",
                        "name": "String",
                        "printedName": "Swift.String",
                        "usr": "s:SS"
                      }
                    ],
                    "usr": "s:Sq"
                  }
                ],
                "declKind": "Accessor",
                "usr": "s:14OfflineAadhaar0aB14ViewControllerC17environmentStringSSSgvg",
                "mangledName": "$s14OfflineAadhaar0aB14ViewControllerC17environmentStringSSSgvg",
                "moduleName": "OfflineAadhaar",
                "implicit": true,
                "accessorKind": "get"
              },
              {
                "kind": "Accessor",
                "name": "Set",
                "printedName": "Set()",
                "children": [
                  {
                    "kind": "TypeNominal",
                    "name": "Void",
                    "printedName": "()"
                  },
                  {
                    "kind": "TypeNominal",
                    "name": "Optional",
                    "printedName": "Swift.String?",
                    "children": [
                      {
                        "kind": "TypeNominal",
                        "name": "String",
                        "printedName": "Swift.String",
                        "usr": "s:SS"
                      }
                    ],
                    "usr": "s:Sq"
                  }
                ],
                "declKind": "Accessor",
                "usr": "s:14OfflineAadhaar0aB14ViewControllerC17environmentStringSSSgvs",
                "mangledName": "$s14OfflineAadhaar0aB14ViewControllerC17environmentStringSSSgvs",
                "moduleName": "OfflineAadhaar",
                "implicit": true,
                "accessorKind": "set"
              },
              {
                "kind": "Accessor",
                "name": "Modify",
                "printedName": "Modify()",
                "children": [
                  {
                    "kind": "TypeNominal",
                    "name": "Void",
                    "printedName": "()"
                  }
                ],
                "declKind": "Accessor",
                "usr": "s:14OfflineAadhaar0aB14ViewControllerC17environmentStringSSSgvM",
                "mangledName": "$s14OfflineAadhaar0aB14ViewControllerC17environmentStringSSSgvM",
                "moduleName": "OfflineAadhaar",
                "implicit": true,
                "accessorKind": "_modify"
              }
            ]
          },
          {
            "kind": "Var",
            "name": "clientCode",
            "printedName": "clientCode",
            "children": [
              {
                "kind": "TypeNominal",
                "name": "Optional",
                "printedName": "Swift.String?",
                "children": [
                  {
                    "kind": "TypeNominal",
                    "name": "String",
                    "printedName": "Swift.String",
                    "usr": "s:SS"
                  }
                ],
                "usr": "s:Sq"
              }
            ],
            "declKind": "Var",
            "usr": "s:14OfflineAadhaar0aB14ViewControllerC10clientCodeSSSgvp",
            "mangledName": "$s14OfflineAadhaar0aB14ViewControllerC10clientCodeSSSgvp",
            "moduleName": "OfflineAadhaar",
            "declAttributes": [
              "Custom",
              "HasInitialValue",
              "HasStorage",
              "AccessControl"
            ],
            "hasStorage": true,
            "accessors": [
              {
                "kind": "Accessor",
                "name": "Get",
                "printedName": "Get()",
                "children": [
                  {
                    "kind": "TypeNominal",
                    "name": "Optional",
                    "printedName": "Swift.String?",
                    "children": [
                      {
                        "kind": "TypeNominal",
                        "name": "String",
                        "printedName": "Swift.String",
                        "usr": "s:SS"
                      }
                    ],
                    "usr": "s:Sq"
                  }
                ],
                "declKind": "Accessor",
                "usr": "s:14OfflineAadhaar0aB14ViewControllerC10clientCodeSSSgvg",
                "mangledName": "$s14OfflineAadhaar0aB14ViewControllerC10clientCodeSSSgvg",
                "moduleName": "OfflineAadhaar",
                "implicit": true,
                "accessorKind": "get"
              },
              {
                "kind": "Accessor",
                "name": "Set",
                "printedName": "Set()",
                "children": [
                  {
                    "kind": "TypeNominal",
                    "name": "Void",
                    "printedName": "()"
                  },
                  {
                    "kind": "TypeNominal",
                    "name": "Optional",
                    "printedName": "Swift.String?",
                    "children": [
                      {
                        "kind": "TypeNominal",
                        "name": "String",
                        "printedName": "Swift.String",
                        "usr": "s:SS"
                      }
                    ],
                    "usr": "s:Sq"
                  }
                ],
                "declKind": "Accessor",
                "usr": "s:14OfflineAadhaar0aB14ViewControllerC10clientCodeSSSgvs",
                "mangledName": "$s14OfflineAadhaar0aB14ViewControllerC10clientCodeSSSgvs",
                "moduleName": "OfflineAadhaar",
                "implicit": true,
                "accessorKind": "set"
              },
              {
                "kind": "Accessor",
                "name": "Modify",
                "printedName": "Modify()",
                "children": [
                  {
                    "kind": "TypeNominal",
                    "name": "Void",
                    "printedName": "()"
                  }
                ],
                "declKind": "Accessor",
                "usr": "s:14OfflineAadhaar0aB14ViewControllerC10clientCodeSSSgvM",
                "mangledName": "$s14OfflineAadhaar0aB14ViewControllerC10clientCodeSSSgvM",
                "moduleName": "OfflineAadhaar",
                "implicit": true,
                "accessorKind": "_modify"
              }
            ]
          },
          {
            "kind": "Var",
            "name": "caseId",
            "printedName": "caseId",
            "children": [
              {
                "kind": "TypeNominal",
                "name": "Optional",
                "printedName": "Swift.String?",
                "children": [
                  {
                    "kind": "TypeNominal",
                    "name": "String",
                    "printedName": "Swift.String",
                    "usr": "s:SS"
                  }
                ],
                "usr": "s:Sq"
              }
            ],
            "declKind": "Var",
            "usr": "s:14OfflineAadhaar0aB14ViewControllerC6caseIdSSSgvp",
            "mangledName": "$s14OfflineAadhaar0aB14ViewControllerC6caseIdSSSgvp",
            "moduleName": "OfflineAadhaar",
            "declAttributes": [
              "Custom",
              "HasInitialValue",
              "HasStorage",
              "AccessControl"
            ],
            "hasStorage": true,
            "accessors": [
              {
                "kind": "Accessor",
                "name": "Get",
                "printedName": "Get()",
                "children": [
                  {
                    "kind": "TypeNominal",
                    "name": "Optional",
                    "printedName": "Swift.String?",
                    "children": [
                      {
                        "kind": "TypeNominal",
                        "name": "String",
                        "printedName": "Swift.String",
                        "usr": "s:SS"
                      }
                    ],
                    "usr": "s:Sq"
                  }
                ],
                "declKind": "Accessor",
                "usr": "s:14OfflineAadhaar0aB14ViewControllerC6caseIdSSSgvg",
                "mangledName": "$s14OfflineAadhaar0aB14ViewControllerC6caseIdSSSgvg",
                "moduleName": "OfflineAadhaar",
                "implicit": true,
                "accessorKind": "get"
              },
              {
                "kind": "Accessor",
                "name": "Set",
                "printedName": "Set()",
                "children": [
                  {
                    "kind": "TypeNominal",
                    "name": "Void",
                    "printedName": "()"
                  },
                  {
                    "kind": "TypeNominal",
                    "name": "Optional",
                    "printedName": "Swift.String?",
                    "children": [
                      {
                        "kind": "TypeNominal",
                        "name": "String",
                        "printedName": "Swift.String",
                        "usr": "s:SS"
                      }
                    ],
                    "usr": "s:Sq"
                  }
                ],
                "declKind": "Accessor",
                "usr": "s:14OfflineAadhaar0aB14ViewControllerC6caseIdSSSgvs",
                "mangledName": "$s14OfflineAadhaar0aB14ViewControllerC6caseIdSSSgvs",
                "moduleName": "OfflineAadhaar",
                "implicit": true,
                "accessorKind": "set"
              },
              {
                "kind": "Accessor",
                "name": "Modify",
                "printedName": "Modify()",
                "children": [
                  {
                    "kind": "TypeNominal",
                    "name": "Void",
                    "printedName": "()"
                  }
                ],
                "declKind": "Accessor",
                "usr": "s:14OfflineAadhaar0aB14ViewControllerC6caseIdSSSgvM",
                "mangledName": "$s14OfflineAadhaar0aB14ViewControllerC6caseIdSSSgvM",
                "moduleName": "OfflineAadhaar",
                "implicit": true,
                "accessorKind": "_modify"
              }
            ]
          },
          {
            "kind": "Var",
            "name": "mobile",
            "printedName": "mobile",
            "children": [
              {
                "kind": "TypeNominal",
                "name": "Optional",
                "printedName": "Swift.String?",
                "children": [
                  {
                    "kind": "TypeNominal",
                    "name": "String",
                    "printedName": "Swift.String",
                    "usr": "s:SS"
                  }
                ],
                "usr": "s:Sq"
              }
            ],
            "declKind": "Var",
            "usr": "s:14OfflineAadhaar0aB14ViewControllerC6mobileSSSgvp",
            "mangledName": "$s14OfflineAadhaar0aB14ViewControllerC6mobileSSSgvp",
            "moduleName": "OfflineAadhaar",
            "declAttributes": [
              "Custom",
              "HasInitialValue",
              "HasStorage",
              "AccessControl"
            ],
            "hasStorage": true,
            "accessors": [
              {
                "kind": "Accessor",
                "name": "Get",
                "printedName": "Get()",
                "children": [
                  {
                    "kind": "TypeNominal",
                    "name": "Optional",
                    "printedName": "Swift.String?",
                    "children": [
                      {
                        "kind": "TypeNominal",
                        "name": "String",
                        "printedName": "Swift.String",
                        "usr": "s:SS"
                      }
                    ],
                    "usr": "s:Sq"
                  }
                ],
                "declKind": "Accessor",
                "usr": "s:14OfflineAadhaar0aB14ViewControllerC6mobileSSSgvg",
                "mangledName": "$s14OfflineAadhaar0aB14ViewControllerC6mobileSSSgvg",
                "moduleName": "OfflineAadhaar",
                "implicit": true,
                "accessorKind": "get"
              },
              {
                "kind": "Accessor",
                "name": "Set",
                "printedName": "Set()",
                "children": [
                  {
                    "kind": "TypeNominal",
                    "name": "Void",
                    "printedName": "()"
                  },
                  {
                    "kind": "TypeNominal",
                    "name": "Optional",
                    "printedName": "Swift.String?",
                    "children": [
                      {
                        "kind": "TypeNominal",
                        "name": "String",
                        "printedName": "Swift.String",
                        "usr": "s:SS"
                      }
                    ],
                    "usr": "s:Sq"
                  }
                ],
                "declKind": "Accessor",
                "usr": "s:14OfflineAadhaar0aB14ViewControllerC6mobileSSSgvs",
                "mangledName": "$s14OfflineAadhaar0aB14ViewControllerC6mobileSSSgvs",
                "moduleName": "OfflineAadhaar",
                "implicit": true,
                "accessorKind": "set"
              },
              {
                "kind": "Accessor",
                "name": "Modify",
                "printedName": "Modify()",
                "children": [
                  {
                    "kind": "TypeNominal",
                    "name": "Void",
                    "printedName": "()"
                  }
                ],
                "declKind": "Accessor",
                "usr": "s:14OfflineAadhaar0aB14ViewControllerC6mobileSSSgvM",
                "mangledName": "$s14OfflineAadhaar0aB14ViewControllerC6mobileSSSgvM",
                "moduleName": "OfflineAadhaar",
                "implicit": true,
                "accessorKind": "_modify"
              }
            ]
          },
          {
            "kind": "Var",
            "name": "email",
            "printedName": "email",
            "children": [
              {
                "kind": "TypeNominal",
                "name": "Optional",
                "printedName": "Swift.String?",
                "children": [
                  {
                    "kind": "TypeNominal",
                    "name": "String",
                    "printedName": "Swift.String",
                    "usr": "s:SS"
                  }
                ],
                "usr": "s:Sq"
              }
            ],
            "declKind": "Var",
            "usr": "s:14OfflineAadhaar0aB14ViewControllerC5emailSSSgvp",
            "mangledName": "$s14OfflineAadhaar0aB14ViewControllerC5emailSSSgvp",
            "moduleName": "OfflineAadhaar",
            "declAttributes": [
              "Custom",
              "HasInitialValue",
              "HasStorage",
              "AccessControl"
            ],
            "hasStorage": true,
            "accessors": [
              {
                "kind": "Accessor",
                "name": "Get",
                "printedName": "Get()",
                "children": [
                  {
                    "kind": "TypeNominal",
                    "name": "Optional",
                    "printedName": "Swift.String?",
                    "children": [
                      {
                        "kind": "TypeNominal",
                        "name": "String",
                        "printedName": "Swift.String",
                        "usr": "s:SS"
                      }
                    ],
                    "usr": "s:Sq"
                  }
                ],
                "declKind": "Accessor",
                "usr": "s:14OfflineAadhaar0aB14ViewControllerC5emailSSSgvg",
                "mangledName": "$s14OfflineAadhaar0aB14ViewControllerC5emailSSSgvg",
                "moduleName": "OfflineAadhaar",
                "implicit": true,
                "accessorKind": "get"
              },
              {
                "kind": "Accessor",
                "name": "Set",
                "printedName": "Set()",
                "children": [
                  {
                    "kind": "TypeNominal",
                    "name": "Void",
                    "printedName": "()"
                  },
                  {
                    "kind": "TypeNominal",
                    "name": "Optional",
                    "printedName": "Swift.String?",
                    "children": [
                      {
                        "kind": "TypeNominal",
                        "name": "String",
                        "printedName": "Swift.String",
                        "usr": "s:SS"
                      }
                    ],
                    "usr": "s:Sq"
                  }
                ],
                "declKind": "Accessor",
                "usr": "s:14OfflineAadhaar0aB14ViewControllerC5emailSSSgvs",
                "mangledName": "$s14OfflineAadhaar0aB14ViewControllerC5emailSSSgvs",
                "moduleName": "OfflineAadhaar",
                "implicit": true,
                "accessorKind": "set"
              },
              {
                "kind": "Accessor",
                "name": "Modify",
                "printedName": "Modify()",
                "children": [
                  {
                    "kind": "TypeNominal",
                    "name": "Void",
                    "printedName": "()"
                  }
                ],
                "declKind": "Accessor",
                "usr": "s:14OfflineAadhaar0aB14ViewControllerC5emailSSSgvM",
                "mangledName": "$s14OfflineAadhaar0aB14ViewControllerC5emailSSSgvM",
                "moduleName": "OfflineAadhaar",
                "implicit": true,
                "accessorKind": "_modify"
              }
            ]
          },
          {
            "kind": "Constructor",
            "name": "init",
            "printedName": "init(token:environmentString:clientCode:caseId:mobile:email:)",
            "children": [
              {
                "kind": "TypeNominal",
                "name": "OfflineAadhaarViewController",
                "printedName": "OfflineAadhaar.OfflineAadhaarViewController",
                "usr": "c:@M@OfflineAadhaar@objc(cs)OfflineAadhaarViewController"
              },
              {
                "kind": "TypeNominal",
                "name": "String",
                "printedName": "Swift.String",
                "usr": "s:SS"
              },
              {
                "kind": "TypeNominal",
                "name": "String",
                "printedName": "Swift.String",
                "usr": "s:SS"
              },
              {
                "kind": "TypeNominal",
                "name": "Optional",
                "printedName": "Swift.String?",
                "children": [
                  {
                    "kind": "TypeNominal",
                    "name": "String",
                    "printedName": "Swift.String",
                    "usr": "s:SS"
                  }
                ],
                "usr": "s:Sq"
              },
              {
                "kind": "TypeNominal",
                "name": "Optional",
                "printedName": "Swift.String?",
                "children": [
                  {
                    "kind": "TypeNominal",
                    "name": "String",
                    "printedName": "Swift.String",
                    "usr": "s:SS"
                  }
                ],
                "usr": "s:Sq"
              },
              {
                "kind": "TypeNominal",
                "name": "Optional",
                "printedName": "Swift.String?",
                "children": [
                  {
                    "kind": "TypeNominal",
                    "name": "String",
                    "printedName": "Swift.String",
                    "usr": "s:SS"
                  }
                ],
                "usr": "s:Sq"
              },
              {
                "kind": "TypeNominal",
                "name": "Optional",
                "printedName": "Swift.String?",
                "children": [
                  {
                    "kind": "TypeNominal",
                    "name": "String",
                    "printedName": "Swift.String",
                    "usr": "s:SS"
                  }
                ],
                "usr": "s:Sq"
              }
            ],
            "declKind": "Constructor",
            "usr": "s:14OfflineAadhaar0aB14ViewControllerC5token17environmentString10clientCode6caseId6mobile5emailACSS_S2SSgA3Jtcfc",
            "mangledName": "$s14OfflineAadhaar0aB14ViewControllerC5token17environmentString10clientCode6caseId6mobile5emailACSS_S2SSgA3Jtcfc",
            "moduleName": "OfflineAadhaar",
            "declAttributes": [
              "Custom",
              "AccessControl"
            ],
            "init_kind": "Designated"
          },
          {
            "kind": "Function",
            "name": "viewDidLoad",
            "printedName": "viewDidLoad()",
            "children": [
              {
                "kind": "TypeNominal",
                "name": "Void",
                "printedName": "()"
              }
            ],
            "declKind": "Func",
            "usr": "c:@M@OfflineAadhaar@objc(cs)OfflineAadhaarViewController(im)viewDidLoad",
            "mangledName": "$s14OfflineAadhaar0aB14ViewControllerC11viewDidLoadyyF",
            "moduleName": "OfflineAadhaar",
            "overriding": true,
            "objc_name": "viewDidLoad",
            "declAttributes": [
              "Dynamic",
              "ObjC",
              "Custom",
              "Override",
              "AccessControl"
            ],
            "funcSelfKind": "NonMutating"
          },
          {
            "kind": "Constructor",
            "name": "init",
            "printedName": "init(nibName:bundle:)",
            "children": [
              {
                "kind": "TypeNominal",
                "name": "OfflineAadhaarViewController",
                "printedName": "OfflineAadhaar.OfflineAadhaarViewController",
                "usr": "c:@M@OfflineAadhaar@objc(cs)OfflineAadhaarViewController"
              },
              {
                "kind": "TypeNominal",
                "name": "Optional",
                "printedName": "Swift.String?",
                "children": [
                  {
                    "kind": "TypeNominal",
                    "name": "String",
                    "printedName": "Swift.String",
                    "usr": "s:SS"
                  }
                ],
                "usr": "s:Sq"
              },
              {
                "kind": "TypeNominal",
                "name": "Optional",
                "printedName": "Foundation.Bundle?",
                "children": [
                  {
                    "kind": "TypeNominal",
                    "name": "Bundle",
                    "printedName": "Foundation.Bundle",
                    "usr": "c:objc(cs)NSBundle"
                  }
                ],
                "usr": "s:Sq"
              }
            ],
            "declKind": "Constructor",
            "usr": "c:@M@OfflineAadhaar@objc(cs)OfflineAadhaarViewController(im)initWithNibName:bundle:",
            "mangledName": "$s14OfflineAadhaar0aB14ViewControllerC7nibName6bundleACSSSg_So8NSBundleCSgtcfc",
            "moduleName": "OfflineAadhaar",
            "overriding": true,
            "implicit": true,
            "objc_name": "initWithNibName:bundle:",
            "declAttributes": [
              "Dynamic",
              "ObjC",
              "Custom",
              "Override"
            ],
            "init_kind": "Designated"
          }
        ],
        "declKind": "Class",
        "usr": "c:@M@OfflineAadhaar@objc(cs)OfflineAadhaarViewController",
        "mangledName": "$s14OfflineAadhaar0aB14ViewControllerC",
        "moduleName": "OfflineAadhaar",
        "declAttributes": [
          "Custom",
          "AccessControl",
          "ObjC"
        ],
        "superclassUsr": "c:objc(cs)UIViewController",
        "hasMissingDesignatedInitializers": true,
        "superclassNames": [
          "UIKit.UIViewController",
          "UIKit.UIResponder",
          "ObjectiveC.NSObject"
        ],
        "conformances": [
          {
            "kind": "Conformance",
            "name": "Equatable",
            "printedName": "Equatable",
            "usr": "s:SQ",
            "mangledName": "$sSQ"
          },
          {
            "kind": "Conformance",
            "name": "Hashable",
            "printedName": "Hashable",
            "usr": "s:SH",
            "mangledName": "$sSH"
          },
          {
            "kind": "Conformance",
            "name": "CVarArg",
            "printedName": "CVarArg",
            "usr": "s:s7CVarArgP",
            "mangledName": "$ss7CVarArgP"
          },
          {
            "kind": "Conformance",
            "name": "_KeyValueCodingAndObservingPublishing",
            "printedName": "_KeyValueCodingAndObservingPublishing",
            "usr": "s:10Foundation37_KeyValueCodingAndObservingPublishingP",
            "mangledName": "$s10Foundation37_KeyValueCodingAndObservingPublishingP"
          },
          {
            "kind": "Conformance",
            "name": "_KeyValueCodingAndObserving",
            "printedName": "_KeyValueCodingAndObserving",
            "usr": "s:10Foundation27_KeyValueCodingAndObservingP",
            "mangledName": "$s10Foundation27_KeyValueCodingAndObservingP"
          },
          {
            "kind": "Conformance",
            "name": "CustomStringConvertible",
            "printedName": "CustomStringConvertible",
            "usr": "s:s23CustomStringConvertibleP",
            "mangledName": "$ss23CustomStringConvertibleP"
          },
          {
            "kind": "Conformance",
            "name": "CustomDebugStringConvertible",
            "printedName": "CustomDebugStringConvertible",
            "usr": "s:s28CustomDebugStringConvertibleP",
            "mangledName": "$ss28CustomDebugStringConvertibleP"
          },
          {
            "kind": "Conformance",
            "name": "UITraitChangeObservable",
            "printedName": "UITraitChangeObservable",
            "usr": "s:5UIKit23UITraitChangeObservableP",
            "mangledName": "$s5UIKit23UITraitChangeObservableP"
          }
        ]
      },
      {
        "kind": "Import",
        "name": "Foundation",
        "printedName": "Foundation",
        "declKind": "Import",
        "moduleName": "OfflineAadhaar",
        "declAttributes": [
          "RawDocComment"
        ]
      },
      {
        "kind": "Import",
        "name": "UIKit",
        "printedName": "UIKit",
        "declKind": "Import",
        "moduleName": "OfflineAadhaar"
      },
      {
        "kind": "Import",
        "name": "WebKit",
        "printedName": "WebKit",
        "declKind": "Import",
        "moduleName": "OfflineAadhaar"
      },
      {
        "kind": "Import",
        "name": "Foundation",
        "printedName": "Foundation",
        "declKind": "Import",
        "moduleName": "OfflineAadhaar",
        "declAttributes": [
          "RawDocComment"
        ]
      },
      {
        "kind": "Import",
        "name": "UIKit",
        "printedName": "UIKit",
        "declKind": "Import",
        "moduleName": "OfflineAadhaar"
      },
      {
        "kind": "Import",
        "name": "Foundation",
        "printedName": "Foundation",
        "declKind": "Import",
        "moduleName": "OfflineAadhaar",
        "declAttributes": [
          "RawDocComment"
        ]
      }
    ],
    "json_format_version": 8
  },
  "ConstValues": [
    {
      "filePath": "\/Users\/perfios\/Perfios\/Gitlab\/ios_aadhaar_xml\/OfflineAadhaar\/OfflineAadhaarViewController.swift",
      "kind": "StringLiteral",
      "offset": 1224,
      "length": 39,
      "value": "\"init(coder:) has not been implemented\""
    },
    {
      "filePath": "\/Users\/perfios\/Perfios\/Gitlab\/ios_aadhaar_xml\/OfflineAadhaar\/OfflineAadhaarViewController.swift",
      "kind": "StringLiteral",
      "offset": 1565,
      "length": 70,
      "value": "\"https:\/\/app.karza.in\/\""
    },
    {
      "filePath": "\/Users\/perfios\/Perfios\/Gitlab\/ios_aadhaar_xml\/OfflineAadhaar\/OfflineAadhaarViewController.swift",
      "kind": "StringLiteral",
      "offset": 1608,
      "length": 1,
      "value": "\"\/aadhaar-xml\/?platform=ios\""
    },
    {
      "filePath": "\/Users\/perfios\/Perfios\/Gitlab\/ios_aadhaar_xml\/OfflineAadhaar\/OfflineAadhaarViewController.swift",
      "kind": "StringLiteral",
      "offset": 1692,
      "length": 24,
      "value": "\"&k-token=\""
    },
    {
      "filePath": "\/Users\/perfios\/Perfios\/Gitlab\/ios_aadhaar_xml\/OfflineAadhaar\/OfflineAadhaarViewController.swift",
      "kind": "StringLiteral",
      "offset": 1715,
      "length": 1,
      "value": "\"\""
    },
    {
      "filePath": "\/Users\/perfios\/Perfios\/Gitlab\/ios_aadhaar_xml\/OfflineAadhaar\/OfflineAadhaarViewController.swift",
      "kind": "StringLiteral",
      "offset": 1779,
      "length": 23,
      "value": "\"&client=\""
    },
    {
      "filePath": "\/Users\/perfios\/Perfios\/Gitlab\/ios_aadhaar_xml\/OfflineAadhaar\/OfflineAadhaarViewController.swift",
      "kind": "StringLiteral",
      "offset": 1801,
      "length": 1,
      "value": "\"\""
    },
    {
      "filePath": "\/Users\/perfios\/Perfios\/Gitlab\/ios_aadhaar_xml\/OfflineAadhaar\/OfflineAadhaarViewController.swift",
      "kind": "StringLiteral",
      "offset": 1857,
      "length": 19,
      "value": "\"&caseid=\""
    },
    {
      "filePath": "\/Users\/perfios\/Perfios\/Gitlab\/ios_aadhaar_xml\/OfflineAadhaar\/OfflineAadhaarViewController.swift",
      "kind": "StringLiteral",
      "offset": 1875,
      "length": 1,
      "value": "\"\""
    },
    {
      "filePath": "\/Users\/perfios\/Perfios\/Gitlab\/ios_aadhaar_xml\/OfflineAadhaar\/OfflineAadhaarViewController.swift",
      "kind": "StringLiteral",
      "offset": 1929,
      "length": 17,
      "value": "\"&email=\""
    },
    {
      "filePath": "\/Users\/perfios\/Perfios\/Gitlab\/ios_aadhaar_xml\/OfflineAadhaar\/OfflineAadhaarViewController.swift",
      "kind": "StringLiteral",
      "offset": 1945,
      "length": 1,
      "value": "\"\""
    },
    {
      "filePath": "\/Users\/perfios\/Perfios\/Gitlab\/ios_aadhaar_xml\/OfflineAadhaar\/OfflineAadhaarViewController.swift",
      "kind": "StringLiteral",
      "offset": 2001,
      "length": 19,
      "value": "\"&mobile=\""
    },
    {
      "filePath": "\/Users\/perfios\/Perfios\/Gitlab\/ios_aadhaar_xml\/OfflineAadhaar\/OfflineAadhaarViewController.swift",
      "kind": "StringLiteral",
      "offset": 2019,
      "length": 1,
      "value": "\"\""
    },
    {
      "filePath": "\/Users\/perfios\/Perfios\/Gitlab\/ios_aadhaar_xml\/OfflineAadhaar\/OfflineAadhaarViewController.swift",
      "kind": "StringLiteral",
      "offset": 2044,
      "length": 15,
      "value": "\"&version=1_06\""
    },
    {
      "filePath": "\/Users\/perfios\/Perfios\/Gitlab\/ios_aadhaar_xml\/OfflineAadhaar\/OfflineAadhaarViewController.swift",
      "kind": "StringLiteral",
      "offset": 2253,
      "length": 8,
      "value": "\"method\""
    },
    {
      "filePath": "\/Users\/perfios\/Perfios\/Gitlab\/ios_aadhaar_xml\/OfflineAadhaar\/OfflineAadhaarViewController.swift",
      "kind": "StringLiteral",
      "offset": 2312,
      "length": 5,
      "value": "\"url\""
    },
    {
      "filePath": "\/Users\/perfios\/Perfios\/Gitlab\/ios_aadhaar_xml\/OfflineAadhaar\/OfflineAadhaarViewController.swift",
      "kind": "StringLiteral",
      "offset": 2369,
      "length": 6,
      "value": "\"body\""
    },
    {
      "filePath": "\/Users\/perfios\/Perfios\/Gitlab\/ios_aadhaar_xml\/OfflineAadhaar\/OfflineAadhaarViewController.swift",
      "kind": "StringLiteral",
      "offset": 2776,
      "length": 6,
      "value": "\"http\""
    },
    {
      "filePath": "\/Users\/perfios\/Perfios\/Gitlab\/ios_aadhaar_xml\/OfflineAadhaar\/OfflineAadhaarViewController.swift",
      "kind": "BooleanLiteral",
      "offset": 2930,
      "length": 4,
      "value": "true"
    },
    {
      "filePath": "\/Users\/perfios\/Perfios\/Gitlab\/ios_aadhaar_xml\/OfflineAadhaar\/OfflineAadhaarViewController.swift",
      "kind": "StringLiteral",
      "offset": 3037,
      "length": 10,
      "value": "\"shutdown\""
    },
    {
      "filePath": "\/Users\/perfios\/Perfios\/Gitlab\/ios_aadhaar_xml\/OfflineAadhaar\/OfflineAadhaarViewController.swift",
      "kind": "StringLiteral",
      "offset": 320,
      "length": 28,
      "value": "\"OfflineAadhaar.OfflineAadhaarViewController\""
    },
    {
      "filePath": "\/Users\/perfios\/Perfios\/Gitlab\/ios_aadhaar_xml\/OfflineAadhaar\/Bridge.swift",
      "kind": "StringLiteral",
      "offset": 239,
      "length": 9,
      "value": "\"pacific\""
    },
    {
      "filePath": "\/Users\/perfios\/Perfios\/Gitlab\/ios_aadhaar_xml\/OfflineAadhaar\/Bridge.swift",
      "kind": "StringLiteral",
      "offset": 295,
      "length": 33,
      "value": "\"PacificDidReceiveNativeCallback\""
    },
    {
      "filePath": "\/Users\/perfios\/Perfios\/Gitlab\/ios_aadhaar_xml\/OfflineAadhaar\/Bridge.swift",
      "kind": "StringLiteral",
      "offset": 370,
      "length": 34,
      "value": "\"PacificDidReceiveNativeBroadcast\""
    },
    {
      "filePath": "\/Users\/perfios\/Perfios\/Gitlab\/ios_aadhaar_xml\/OfflineAadhaar\/Bridge.swift",
      "kind": "StringLiteral",
      "offset": 462,
      "length": 8,
      "value": "\"action\""
    },
    {
      "filePath": "\/Users\/perfios\/Perfios\/Gitlab\/ios_aadhaar_xml\/OfflineAadhaar\/Bridge.swift",
      "kind": "StringLiteral",
      "offset": 499,
      "length": 12,
      "value": "\"parameters\""
    },
    {
      "filePath": "\/Users\/perfios\/Perfios\/Gitlab\/ios_aadhaar_xml\/OfflineAadhaar\/Bridge.swift",
      "kind": "StringLiteral",
      "offset": 538,
      "length": 10,
      "value": "\"callback\""
    },
    {
      "filePath": "\/Users\/perfios\/Perfios\/Gitlab\/ios_aadhaar_xml\/OfflineAadhaar\/Bridge.swift",
      "kind": "StringLiteral",
      "offset": 576,
      "length": 7,
      "value": "\"print\""
    },
    {
      "filePath": "\/Users\/perfios\/Perfios\/Gitlab\/ios_aadhaar_xml\/OfflineAadhaar\/Bridge.swift",
      "kind": "BooleanLiteral",
      "offset": 1612,
      "length": 5,
      "value": "false"
    },
    {
      "filePath": "\/Users\/perfios\/Perfios\/Gitlab\/ios_aadhaar_xml\/OfflineAadhaar\/Bridge.swift",
      "kind": "StringLiteral",
      "offset": 3378,
      "length": 6,
      "value": "\"name\""
    },
    {
      "filePath": "\/Users\/perfios\/Perfios\/Gitlab\/ios_aadhaar_xml\/OfflineAadhaar\/Bridge.swift",
      "kind": "StringLiteral",
      "offset": 191,
      "length": 6,
      "value": "\"OfflineAadhaar.Bridge\""
    },
    {
      "filePath": "\/Users\/perfios\/Perfios\/Gitlab\/ios_aadhaar_xml\/OfflineAadhaar\/Bridge.swift",
      "kind": "StringLiteral",
      "offset": 5528,
      "length": 4,
      "value": "\"id\""
    },
    {
      "filePath": "\/Users\/perfios\/Perfios\/Gitlab\/ios_aadhaar_xml\/OfflineAadhaar\/Bridge.swift",
      "kind": "StringLiteral",
      "offset": 6155,
      "length": 4,
      "value": "\"id\""
    },
    {
      "filePath": "\/Users\/perfios\/Perfios\/Gitlab\/ios_aadhaar_xml\/OfflineAadhaar\/Bridge.swift",
      "kind": "StringLiteral",
      "offset": 6453,
      "length": 27,
      "value": "\"STPrivateStatic.bridgeKey\""
    },
    {
      "filePath": "\/Users\/perfios\/Perfios\/Gitlab\/ios_aadhaar_xml\/OfflineAadhaar\/Bridge.swift",
      "kind": "StringLiteral",
      "offset": 7708,
      "length": 7,
      "value": "\"error\""
    },
    {
      "filePath": "\/Users\/perfios\/Perfios\/Gitlab\/ios_aadhaar_xml\/OfflineAadhaar\/Bridge.swift",
      "kind": "StringLiteral",
      "offset": 7720,
      "length": 6,
      "value": "\"code\""
    },
    {
      "filePath": "\/Users\/perfios\/Perfios\/Gitlab\/ios_aadhaar_xml\/OfflineAadhaar\/Bridge.swift",
      "kind": "StringLiteral",
      "offset": 7740,
      "length": 13,
      "value": "\"description\""
    },
    {
      "filePath": "\/Users\/perfios\/Perfios\/Gitlab\/ios_aadhaar_xml\/OfflineAadhaar\/Bridge.swift",
      "kind": "StringLiteral",
      "offset": 7835,
      "length": 12,
      "value": "\"parameters\""
    },
    {
      "filePath": "\/Users\/perfios\/Perfios\/Gitlab\/ios_aadhaar_xml\/OfflineAadhaar\/Bridge.swift",
      "kind": "Dictionary",
      "offset": 7873,
      "length": 3,
      "value": "[]"
    },
    {
      "filePath": "\/Users\/perfios\/Perfios\/Gitlab\/ios_aadhaar_xml\/OfflineAadhaar\/Bridge.swift",
      "kind": "StringLiteral",
      "offset": 7919,
      "length": 8,
      "value": "\"detail\""
    },
    {
      "filePath": "\/Users\/perfios\/Perfios\/Gitlab\/ios_aadhaar_xml\/OfflineAadhaar\/Bridge.swift",
      "kind": "StringLiteral",
      "offset": 8174,
      "length": 111,
      "value": "\"(function() { var event = new CustomEvent('\""
    },
    {
      "filePath": "\/Users\/perfios\/Perfios\/Gitlab\/ios_aadhaar_xml\/OfflineAadhaar\/Bridge.swift",
      "kind": "StringLiteral",
      "offset": 8230,
      "length": 55,
      "value": "\"', \""
    },
    {
      "filePath": "\/Users\/perfios\/Perfios\/Gitlab\/ios_aadhaar_xml\/OfflineAadhaar\/Bridge.swift",
      "kind": "StringLiteral",
      "offset": 8247,
      "length": 1,
      "value": "\"); document.dispatchEvent(event)}());\""
    },
    {
      "filePath": "\/Users\/perfios\/Perfios\/Gitlab\/ios_aadhaar_xml\/OfflineAadhaar\/Bridge.swift",
      "kind": "StringLiteral",
      "offset": 8433,
      "length": 127,
      "value": "\"(function() { var event = new CustomEvent('\""
    },
    {
      "filePath": "\/Users\/perfios\/Perfios\/Gitlab\/ios_aadhaar_xml\/OfflineAadhaar\/Bridge.swift",
      "kind": "StringLiteral",
      "offset": 8489,
      "length": 5,
      "value": "\"', {'detail': {'parameters': {}}}); document.dispatchEvent(event)}());\""
    },
    {
      "filePath": "\/Users\/perfios\/Perfios\/Gitlab\/ios_aadhaar_xml\/OfflineAadhaar\/Bridge.swift",
      "kind": "StringLiteral",
      "offset": 8612,
      "length": 182,
      "value": "\"(function() { var event = new CustomEvent('\""
    },
    {
      "filePath": "\/Users\/perfios\/Perfios\/Gitlab\/ios_aadhaar_xml\/OfflineAadhaar\/Bridge.swift",
      "kind": "StringLiteral",
      "offset": 8668,
      "length": 5,
      "value": "\"', {'detail': {'error': {'code': \""
    },
    {
      "filePath": "\/Users\/perfios\/Perfios\/Gitlab\/ios_aadhaar_xml\/OfflineAadhaar\/Bridge.swift",
      "kind": "StringLiteral",
      "offset": 8714,
      "length": 1,
      "value": "\", 'description': '\""
    },
    {
      "filePath": "\/Users\/perfios\/Perfios\/Gitlab\/ios_aadhaar_xml\/OfflineAadhaar\/Bridge.swift",
      "kind": "StringLiteral",
      "offset": 8752,
      "length": 42,
      "value": "\"'}}}); document.dispatchEvent(event)}());\""
    },
    {
      "filePath": "\/Users\/perfios\/Perfios\/Gitlab\/ios_aadhaar_xml\/OfflineAadhaar\/HTTPRequestManager.swift",
      "kind": "StringLiteral",
      "offset": 229,
      "length": 5,
      "value": "\"get\""
    },
    {
      "filePath": "\/Users\/perfios\/Perfios\/Gitlab\/ios_aadhaar_xml\/OfflineAadhaar\/HTTPRequestManager.swift",
      "kind": "StringLiteral",
      "offset": 249,
      "length": 6,
      "value": "\"post\""
    },
    {
      "filePath": "\/Users\/perfios\/Perfios\/Gitlab\/ios_aadhaar_xml\/OfflineAadhaar\/HTTPRequestManager.swift",
      "kind": "StringLiteral",
      "offset": 229,
      "length": 5,
      "value": "\"get\""
    },
    {
      "filePath": "\/Users\/perfios\/Perfios\/Gitlab\/ios_aadhaar_xml\/OfflineAadhaar\/HTTPRequestManager.swift",
      "kind": "StringLiteral",
      "offset": 249,
      "length": 6,
      "value": "\"post\""
    },
    {
      "filePath": "\/Users\/perfios\/Perfios\/Gitlab\/ios_aadhaar_xml\/OfflineAadhaar\/HTTPRequestManager.swift",
      "kind": "StringLiteral",
      "offset": 2424,
      "length": 5,
      "value": "\"GET\""
    },
    {
      "filePath": "\/Users\/perfios\/Perfios\/Gitlab\/ios_aadhaar_xml\/OfflineAadhaar\/HTTPRequestManager.swift",
      "kind": "StringLiteral",
      "offset": 2702,
      "length": 6,
      "value": "\"POST\""
    },
    {
      "filePath": "\/Users\/perfios\/Perfios\/Gitlab\/ios_aadhaar_xml\/OfflineAadhaar\/HTTPRequestManager.swift",
      "kind": "BooleanLiteral",
      "offset": 2768,
      "length": 4,
      "value": "true"
    },
    {
      "filePath": "\/Users\/perfios\/Perfios\/Gitlab\/ios_aadhaar_xml\/OfflineAadhaar\/HTTPRequestManager.swift",
      "kind": "Dictionary",
      "offset": 2960,
      "length": 3,
      "value": "[]"
    },
    {
      "filePath": "\/Users\/perfios\/Perfios\/Gitlab\/ios_aadhaar_xml\/OfflineAadhaar\/HTTPRequestManager.swift",
      "kind": "StringLiteral",
      "offset": 3116,
      "length": 2,
      "value": "\"\""
    },
    {
      "filePath": "\/Users\/perfios\/Perfios\/Gitlab\/ios_aadhaar_xml\/OfflineAadhaar\/HTTPRequestManager.swift",
      "kind": "StringLiteral",
      "offset": 3177,
      "length": 12,
      "value": "\"Set-Cookie\""
    },
    {
      "filePath": "\/Users\/perfios\/Perfios\/Gitlab\/ios_aadhaar_xml\/OfflineAadhaar\/HTTPRequestManager.swift",
      "kind": "StringLiteral",
      "offset": 3270,
      "length": 4,
      "value": "\", \""
    },
    {
      "filePath": "\/Users\/perfios\/Perfios\/Gitlab\/ios_aadhaar_xml\/OfflineAadhaar\/HTTPRequestManager.swift",
      "kind": "StringLiteral",
      "offset": 3282,
      "length": 3,
      "value": "\"|\""
    },
    {
      "filePath": "\/Users\/perfios\/Perfios\/Gitlab\/ios_aadhaar_xml\/OfflineAadhaar\/HTTPRequestManager.swift",
      "kind": "StringLiteral",
      "offset": 3303,
      "length": 12,
      "value": "\"Set-Cookie\""
    },
    {
      "filePath": "\/Users\/perfios\/Perfios\/Gitlab\/ios_aadhaar_xml\/OfflineAadhaar\/HTTPRequestManager.swift",
      "kind": "StringLiteral",
      "offset": 3356,
      "length": 9,
      "value": "\"headers\""
    },
    {
      "filePath": "\/Users\/perfios\/Perfios\/Gitlab\/ios_aadhaar_xml\/OfflineAadhaar\/HTTPRequestManager.swift",
      "kind": "StringLiteral",
      "offset": 3398,
      "length": 12,
      "value": "\"statusCode\""
    },
    {
      "filePath": "\/Users\/perfios\/Perfios\/Gitlab\/ios_aadhaar_xml\/OfflineAadhaar\/HTTPRequestManager.swift",
      "kind": "StringLiteral",
      "offset": 3459,
      "length": 6,
      "value": "\"body\""
    },
    {
      "filePath": "\/Users\/perfios\/Perfios\/Gitlab\/ios_aadhaar_xml\/OfflineAadhaar\/HTTPRequestManager.swift",
      "kind": "StringLiteral",
      "offset": 3530,
      "length": 9,
      "value": "\"headers\""
    },
    {
      "filePath": "\/Users\/perfios\/Perfios\/Gitlab\/ios_aadhaar_xml\/OfflineAadhaar\/HTTPRequestManager.swift",
      "kind": "Dictionary",
      "offset": 3543,
      "length": 3,
      "value": "[]"
    },
    {
      "filePath": "\/Users\/perfios\/Perfios\/Gitlab\/ios_aadhaar_xml\/OfflineAadhaar\/HTTPRequestManager.swift",
      "kind": "StringLiteral",
      "offset": 3568,
      "length": 6,
      "value": "\"body\""
    },
    {
      "filePath": "\/Users\/perfios\/Perfios\/Gitlab\/ios_aadhaar_xml\/OfflineAadhaar\/HTTPRequestManager.swift",
      "kind": "StringLiteral",
      "offset": 3788,
      "length": 10,
      "value": "\"formBody\""
    },
    {
      "filePath": "\/Users\/perfios\/Perfios\/Gitlab\/ios_aadhaar_xml\/OfflineAadhaar\/HTTPRequestManager.swift",
      "kind": "StringLiteral",
      "offset": 3841,
      "length": 31,
      "value": "\"Boundary-\""
    },
    {
      "filePath": "\/Users\/perfios\/Perfios\/Gitlab\/ios_aadhaar_xml\/OfflineAadhaar\/HTTPRequestManager.swift",
      "kind": "StringLiteral",
      "offset": 3871,
      "length": 1,
      "value": "\"\""
    },
    {
      "filePath": "\/Users\/perfios\/Perfios\/Gitlab\/ios_aadhaar_xml\/OfflineAadhaar\/HTTPRequestManager.swift",
      "kind": "StringLiteral",
      "offset": 3896,
      "length": 43,
      "value": "\"multipart\/form-data; boundary=\""
    },
    {
      "filePath": "\/Users\/perfios\/Perfios\/Gitlab\/ios_aadhaar_xml\/OfflineAadhaar\/HTTPRequestManager.swift",
      "kind": "StringLiteral",
      "offset": 3938,
      "length": 24,
      "value": "\"\""
    },
    {
      "filePath": "\/Users\/perfios\/Perfios\/Gitlab\/ios_aadhaar_xml\/OfflineAadhaar\/HTTPRequestManager.swift",
      "kind": "StringLiteral",
      "offset": 3961,
      "length": 14,
      "value": "\"Content-Type\""
    },
    {
      "filePath": "\/Users\/perfios\/Perfios\/Gitlab\/ios_aadhaar_xml\/OfflineAadhaar\/HTTPRequestManager.swift",
      "kind": "StringLiteral",
      "offset": 4100,
      "length": 10,
      "value": "\"jsonBody\""
    },
    {
      "filePath": "\/Users\/perfios\/Perfios\/Gitlab\/ios_aadhaar_xml\/OfflineAadhaar\/HTTPRequestManager.swift",
      "kind": "StringLiteral",
      "offset": 4155,
      "length": 18,
      "value": "\"application\/json\""
    },
    {
      "filePath": "\/Users\/perfios\/Perfios\/Gitlab\/ios_aadhaar_xml\/OfflineAadhaar\/HTTPRequestManager.swift",
      "kind": "StringLiteral",
      "offset": 4195,
      "length": 14,
      "value": "\"Content-Type\""
    },
    {
      "filePath": "\/Users\/perfios\/Perfios\/Gitlab\/ios_aadhaar_xml\/OfflineAadhaar\/HTTPRequestManager.swift",
      "kind": "Array",
      "offset": 4298,
      "length": 2,
      "value": "[]"
    },
    {
      "filePath": "\/Users\/perfios\/Perfios\/Gitlab\/ios_aadhaar_xml\/OfflineAadhaar\/HTTPRequestManager.swift",
      "kind": "BooleanLiteral",
      "offset": 4451,
      "length": 5,
      "value": "false"
    },
    {
      "filePath": "\/Users\/perfios\/Perfios\/Gitlab\/ios_aadhaar_xml\/OfflineAadhaar\/HTTPRequestManager.swift",
      "kind": "StringLiteral",
      "offset": 4538,
      "length": 9,
      "value": "\"headers\""
    },
    {
      "filePath": "\/Users\/perfios\/Perfios\/Gitlab\/ios_aadhaar_xml\/OfflineAadhaar\/HTTPRequestManager.swift",
      "kind": "StringLiteral",
      "offset": 4998,
      "length": 2,
      "value": "\"\""
    },
    {
      "filePath": "\/Users\/perfios\/Perfios\/Gitlab\/ios_aadhaar_xml\/OfflineAadhaar\/HTTPRequestManager.swift",
      "kind": "StringLiteral",
      "offset": 5051,
      "length": 19,
      "value": "\"--\""
    },
    {
      "filePath": "\/Users\/perfios\/Perfios\/Gitlab\/ios_aadhaar_xml\/OfflineAadhaar\/HTTPRequestManager.swift",
      "kind": "StringLiteral",
      "offset": 5065,
      "length": 1,
      "value": "\"\r\n\""
    },
    {
      "filePath": "\/Users\/perfios\/Perfios\/Gitlab\/ios_aadhaar_xml\/OfflineAadhaar\/HTTPRequestManager.swift",
      "kind": "StringLiteral",
      "offset": 5085,
      "length": 48,
      "value": "\"Content-Disposition:form-data; name=\"\""
    },
    {
      "filePath": "\/Users\/perfios\/Perfios\/Gitlab\/ios_aadhaar_xml\/OfflineAadhaar\/HTTPRequestManager.swift",
      "kind": "StringLiteral",
      "offset": 5130,
      "length": 1,
      "value": "\"\"\""
    },
    {
      "filePath": "\/Users\/perfios\/Perfios\/Gitlab\/ios_aadhaar_xml\/OfflineAadhaar\/HTTPRequestManager.swift",
      "kind": "StringLiteral",
      "offset": 5148,
      "length": 33,
      "value": "\"\r\n\r\n\""
    },
    {
      "filePath": "\/Users\/perfios\/Perfios\/Gitlab\/ios_aadhaar_xml\/OfflineAadhaar\/HTTPRequestManager.swift",
      "kind": "StringLiteral",
      "offset": 5176,
      "length": 1,
      "value": "\"\r\n\""
    },
    {
      "filePath": "\/Users\/perfios\/Perfios\/Gitlab\/ios_aadhaar_xml\/OfflineAadhaar\/HTTPRequestManager.swift",
      "kind": "StringLiteral",
      "offset": 5200,
      "length": 21,
      "value": "\"--\""
    },
    {
      "filePath": "\/Users\/perfios\/Perfios\/Gitlab\/ios_aadhaar_xml\/OfflineAadhaar\/HTTPRequestManager.swift",
      "kind": "StringLiteral",
      "offset": 5214,
      "length": 2,
      "value": "\"--\r\n\""
    }
  ]
}